%!PS-Adobe-1.0
%%DocumentFonts: Times-Roman Times-Roman
%%Creator: njplot
%%Pages: 1
%%Title: /home/tina/projects/KAP1/trees/phyml-bst1000/not.so.conserved.Gblocks/msa_nt_cds_mafftl_revtrans_fasta_gb_455bp_phylip_phyml_tree.txt.ph
%%BeginFeature: *PageSize 
a4
%%EndFeature
%%EndComments
/setpacking where {true setpacking} if
1 setlinecap 1 setlinejoin 1 setlinewidth 0 setgray
/basefont /Times-Roman findfont 12 scalefont def
/titlefont /Times-Roman findfont 12 scalefont def
/setclip {40 40 moveto 560 40 lineto 560 810 lineto 40 810 lineto closepath clip newpath} def
/title {titlefont setfont
40 815 moveto (msa_nt_cds_mafftl_revtrans_fasta_gb_455bp_phylip_phyml_tree.txt.ph   Tue Aug  9 10:29:33 2016
) show (  Page ) show show ( of 1) show
} def
%%EndProlog
%%Page: ? 1
(1) title setclip
0 0 translate
basefont setfont
50 50 translate
0.7 setgray -10 -10 moveto 510 -10 lineto 510 760 lineto -10 760 lineto closepath stroke 0 setgray 
331 13 moveto
(RAB1-2_CDS) show
254 31 moveto
(RAB1-4_CDS) show
273 48 moveto
(RAB1-1_CDS) show
278 66 moveto
(RAB1-3_CDS) show
192 67 moveto
(999) show
178 54 moveto
(542) show
269 84 moveto
(MOU1-3_CDS) show
268 101 moveto
(MOU1-4_CDS) show
299 119 moveto
(RAT1-3_CDS) show
288 137 moveto
(RAT1-4_CDS) show
215 138 moveto
(986) show
185 125 moveto
(701) show
355 154 moveto
(RAT1-2_CDS) show
346 172 moveto
(MOU1-2_CDS) show
352 190 moveto
(RAT1-1_CDS) show
414 207 moveto
(MOU1-1_CDS) show
252 153 moveto
(765) show
252 209 moveto
(996) show
156 89 moveto
(865) show
156 191 moveto
(1000) show
184 225 moveto
(CAN1-4_CDS) show
188 243 moveto
(CAN1-2_CDS) show
188 261 moveto
(CAN1-1_CDS) show
193 278 moveto
(CAN1-3_CDS) show
185 279 moveto
(301) show
181 266 moveto
(712) show
82 130 moveto
(836) show
82 251 moveto
(1000) show
46 18 moveto
(1000) show
46 200 moveto
(769) show
278 296 moveto
(HOR1-4_CDS) show
235 314 moveto
(HOR1-3_CDS) show
225 331 moveto
(HOR1-2_CDS) show
225 349 moveto
(HOR1-1_CDS) show
188 295 moveto
(815) show
188 350 moveto
(981) show
380 367 moveto
(LOX1-2_CDS) show
317 384 moveto
(LOX1-4_CDS) show
363 402 moveto
(LOX1-3_CDS) show
332 420 moveto
(LOX1-1_CDS) show
218 366 moveto
(583) show
218 421 moveto
(1000) show
283 437 moveto
(MAC1-1_CDS) show
260 455 moveto
(HUM1-4_CDS) show
230 473 moveto
(HUM1-1_CDS) show
223 491 moveto
(HUM1-3_CDS) show
291 508 moveto
(HUM1-5_CDS) show
272 526 moveto
(MAC1-4_CDS) show
280 544 moveto
(MAC1-2_CDS) show
287 561 moveto
(MAC1-3_CDS) show
243 562 moveto
(264) show
219 549 moveto
(627) show
201 534 moveto
(343) show
182 517 moveto
(405) show
158 436 moveto
(900) show
158 500 moveto
(496) show
98 383 moveto
(999) show
98 478 moveto
(976) show
55 312 moveto
(1000) show
55 441 moveto
(732) show
27 99 moveto
(567) show
27 387 moveto
(384) show
261 579 moveto
(SHE1-1_CDS) show
261 597 moveto
(SHE1-4_CDS) show
293 614 moveto
(BOV1-4_CDS) show
193 616 moveto
(516) show
244 632 moveto
(SHE1-2_CDS) show
273 650 moveto
(BOV1-2_CDS) show
287 667 moveto
(BOV1-1_CDS) show
210 669 moveto
(712) show
192 582 moveto
(161) show
192 655 moveto
(293) show
382 685 moveto
(BOV1-3_CDS) show
240 703 moveto
(SHE1-3_CDS) show
188 609 moveto
(147) show
188 704 moveto
(875) show
19 450 moveto
(1000) show
270 55 moveto
270 55 lineto stroke
270 73 moveto
275 73 lineto stroke
270 55 moveto
270 73 lineto stroke
192 37 moveto
251 37 lineto stroke
192 64 moveto
270 64 lineto stroke
192 37 moveto
192 64 lineto stroke
178 20 moveto
328 20 lineto stroke
178 50 moveto
192 50 lineto stroke
178 20 moveto
178 50 lineto stroke
259 126 moveto
296 126 lineto stroke
259 143 moveto
285 143 lineto stroke
259 126 moveto
259 143 lineto stroke
215 108 moveto
264 108 lineto stroke
215 135 moveto
259 135 lineto stroke
215 108 moveto
215 135 lineto stroke
185 90 moveto
266 90 lineto stroke
185 121 moveto
215 121 lineto stroke
185 90 moveto
185 121 lineto stroke
287 161 moveto
352 161 lineto stroke
287 179 moveto
343 179 lineto stroke
287 161 moveto
287 179 lineto stroke
310 196 moveto
349 196 lineto stroke
310 214 moveto
411 214 lineto stroke
310 196 moveto
310 214 lineto stroke
252 170 moveto
287 170 lineto stroke
252 205 moveto
310 205 lineto stroke
252 170 moveto
252 205 lineto stroke
156 106 moveto
185 106 lineto stroke
156 188 moveto
252 188 lineto stroke
156 106 moveto
156 188 lineto stroke
185 267 moveto
185 267 lineto stroke
185 285 moveto
190 285 lineto stroke
185 267 moveto
185 285 lineto stroke
185 249 moveto
185 249 lineto stroke
185 276 moveto
185 276 lineto stroke
185 249 moveto
185 276 lineto stroke
181 232 moveto
181 232 lineto stroke
181 263 moveto
185 263 lineto stroke
181 232 moveto
181 263 lineto stroke
82 147 moveto
156 147 lineto stroke
82 247 moveto
181 247 lineto stroke
82 147 moveto
82 247 lineto stroke
46 35 moveto
178 35 lineto stroke
46 197 moveto
82 197 lineto stroke
46 35 moveto
46 197 lineto stroke
212 303 moveto
274 303 lineto stroke
212 320 moveto
231 320 lineto stroke
212 303 moveto
212 320 lineto stroke
212 338 moveto
221 338 lineto stroke
212 356 moveto
221 356 lineto stroke
212 338 moveto
212 356 lineto stroke
188 311 moveto
212 311 lineto stroke
188 347 moveto
212 347 lineto stroke
188 311 moveto
188 347 lineto stroke
233 373 moveto
376 373 lineto stroke
233 391 moveto
314 391 lineto stroke
233 373 moveto
233 391 lineto stroke
321 409 moveto
360 409 lineto stroke
321 426 moveto
329 426 lineto stroke
321 409 moveto
321 426 lineto stroke
218 382 moveto
233 382 lineto stroke
218 418 moveto
321 418 lineto stroke
218 382 moveto
218 418 lineto stroke
206 444 moveto
280 444 lineto stroke
206 462 moveto
257 462 lineto stroke
206 444 moveto
206 462 lineto stroke
257 550 moveto
277 550 lineto stroke
257 568 moveto
283 568 lineto stroke
257 550 moveto
257 568 lineto stroke
243 533 moveto
269 533 lineto stroke
243 559 moveto
257 559 lineto stroke
243 533 moveto
243 559 lineto stroke
219 515 moveto
288 515 lineto stroke
219 546 moveto
243 546 lineto stroke
219 515 moveto
219 546 lineto stroke
201 497 moveto
220 497 lineto stroke
201 530 moveto
219 530 lineto stroke
201 497 moveto
201 530 lineto stroke
182 479 moveto
226 479 lineto stroke
182 514 moveto
201 514 lineto stroke
182 479 moveto
182 514 lineto stroke
158 453 moveto
206 453 lineto stroke
158 497 moveto
182 497 lineto stroke
158 453 moveto
158 497 lineto stroke
98 400 moveto
218 400 lineto stroke
98 475 moveto
158 475 lineto stroke
98 400 moveto
98 475 lineto stroke
55 329 moveto
188 329 lineto stroke
55 437 moveto
98 437 lineto stroke
55 329 moveto
55 437 lineto stroke
27 116 moveto
46 116 lineto stroke
27 383 moveto
55 383 lineto stroke
27 116 moveto
27 383 lineto stroke
237 603 moveto
258 603 lineto stroke
237 621 moveto
289 621 lineto stroke
237 603 moveto
237 621 lineto stroke
193 586 moveto
258 586 lineto stroke
193 612 moveto
237 612 lineto stroke
193 586 moveto
193 612 lineto stroke
250 656 moveto
270 656 lineto stroke
250 674 moveto
284 674 lineto stroke
250 656 moveto
250 674 lineto stroke
210 639 moveto
241 639 lineto stroke
210 665 moveto
250 665 lineto stroke
210 639 moveto
210 665 lineto stroke
192 599 moveto
193 599 lineto stroke
192 652 moveto
210 652 lineto stroke
192 599 moveto
192 652 lineto stroke
227 692 moveto
379 692 lineto stroke
227 709 moveto
236 709 lineto stroke
227 692 moveto
227 709 lineto stroke
188 625 moveto
192 625 lineto stroke
188 701 moveto
227 701 lineto stroke
188 625 moveto
188 701 lineto stroke
16 250 moveto
27 250 lineto stroke
16 663 moveto
188 663 lineto stroke
16 250 moveto
16 663 lineto stroke
436 723 moveto
475 723 lineto stroke
436 716 moveto
436 729 lineto stroke
475 716 moveto
475 729 lineto stroke
445 726 moveto
(0.02) show
showpage
%%Trailer
