%!PS-Adobe-1.0
%%DocumentFonts: Times-Roman Times-Roman
%%Creator: njplot
%%Pages: 1
%%Title: /home/tina/projects/KAP1/trees/phyml-bst1000/not.so.conserved.Gblocks/msa_nt_3prime_mafftl_fasta_l_709bp_phylip_phyml_tree.txt.ph
%%BeginFeature: *PageSize 
a4
%%EndFeature
%%EndComments
/setpacking where {true setpacking} if
1 setlinecap 1 setlinejoin 1 setlinewidth 0 setgray
/basefont /Times-Roman findfont 12 scalefont def
/titlefont /Times-Roman findfont 12 scalefont def
/setclip {40 40 moveto 560 40 lineto 560 810 lineto 40 810 lineto closepath clip newpath} def
/title {titlefont setfont
40 815 moveto (msa_nt_3prime_mafftl_fasta_l_709bp_phylip_phyml_tree.txt.ph   Tue Aug  9 10:31:15 2016
) show (  Page ) show show ( of 1) show
} def
%%EndProlog
%%Page: ? 1
(1) title setclip
0 0 translate
basefont setfont
50 50 translate
0.7 setgray -10 -10 moveto 510 -10 lineto 510 760 lineto -10 760 lineto closepath stroke 0 setgray 
349 13 moveto
(MAC1-2_3pr) show
357 31 moveto
(HUM1-3_3pr) show
384 48 moveto
(LOX1-2_3pr) show
378 66 moveto
(CAN1-2_3pr) show
352 84 moveto
(HOR1-2_3pr) show
423 101 moveto
(RAB1-2_3pr) show
307 102 moveto
(263) show
302 89 moveto
(184) show
424 119 moveto
(BOV1-2_3pr) show
426 137 moveto
(SHE1-2_3pr) show
294 54 moveto
(258) show
294 138 moveto
(1000) show
274 12 moveto
(1000) show
274 106 moveto
(452) show
424 154 moveto
(RAT1-2_3pr) show
410 172 moveto
(MOU1-2_3pr) show
238 49 moveto
(847) show
238 173 moveto
(1000) show
318 190 moveto
(RAT1-4_3pr) show
314 207 moveto
(MOU1-4_3pr) show
284 225 moveto
(RAB1-4_3pr) show
311 243 moveto
(MAC1-4_3pr) show
290 261 moveto
(HUM1-5_3pr) show
276 278 moveto
(LOX1-4_3pr) show
291 296 moveto
(SHE1-4_3pr) show
279 314 moveto
(BOV1-4_3pr) show
269 331 moveto
(HOR1-4_3pr) show
286 349 moveto
(CAN1-4_3pr) show
228 295 moveto
(1000) show
228 350 moveto
(656) show
221 332 moveto
(815) show
212 242 moveto
(1000) show
212 310 moveto
(702) show
212 286 moveto
(201) show
196 189 moveto
(1000) show
196 261 moveto
(489) show
118 101 moveto
(1000) show
118 235 moveto
(975) show
362 367 moveto
(MOU1-1_3pr) show
358 384 moveto
(RAT1-1_3pr) show
330 402 moveto
(LOX1-1_3pr) show
362 420 moveto
(RAB1-1_3pr) show
308 437 moveto
(HUM1-4_3pr) show
312 455 moveto
(MAC1-1_3pr) show
265 456 moveto
(994) show
259 443 moveto
(338) show
311 473 moveto
(CAN1-1_3pr) show
301 491 moveto
(HOR1-1_3pr) show
331 508 moveto
(SHE1-1_3pr) show
336 526 moveto
(BOV1-1_3pr) show
267 527 moveto
(1000) show
264 514 moveto
(415) show
254 408 moveto
(294) show
254 498 moveto
(454) show
225 366 moveto
(1000) show
225 463 moveto
(348) show
25 158 moveto
(994) show
25 424 moveto
(1000) show
346 544 moveto
(RAB1-3_3pr) show
337 561 moveto
(MAC1-3_3pr) show
339 579 moveto
(HUM1-1_3pr) show
238 580 moveto
(1000) show
335 597 moveto
(LOX1-3_3pr) show
291 614 moveto
(HOR1-3_3pr) show
313 632 moveto
(CAN1-3_3pr) show
349 650 moveto
(SHE1-3_3pr) show
353 667 moveto
(BOV1-3_3pr) show
255 669 moveto
(1000) show
254 655 moveto
(488) show
242 640 moveto
(956) show
235 547 moveto
(389) show
235 623 moveto
(479) show
320 685 moveto
(MOU1-3_3pr) show
327 703 moveto
(RAT1-3_3pr) show
203 575 moveto
(460) show
203 704 moveto
(1000) show
19 465 moveto
(1000) show
336 20 moveto
346 20 lineto stroke
336 37 moveto
354 37 lineto stroke
336 20 moveto
336 37 lineto stroke
313 90 moveto
348 90 lineto stroke
313 108 moveto
420 108 lineto stroke
313 90 moveto
313 108 lineto stroke
307 73 moveto
375 73 lineto stroke
307 99 moveto
313 99 lineto stroke
307 73 moveto
307 99 lineto stroke
302 55 moveto
381 55 lineto stroke
302 86 moveto
307 86 lineto stroke
302 55 moveto
302 86 lineto stroke
415 126 moveto
421 126 lineto stroke
415 143 moveto
423 143 lineto stroke
415 126 moveto
415 143 lineto stroke
294 70 moveto
302 70 lineto stroke
294 135 moveto
415 135 lineto stroke
294 70 moveto
294 135 lineto stroke
274 28 moveto
336 28 lineto stroke
274 102 moveto
294 102 lineto stroke
274 28 moveto
274 102 lineto stroke
388 161 moveto
421 161 lineto stroke
388 179 moveto
407 179 lineto stroke
388 161 moveto
388 179 lineto stroke
238 65 moveto
274 65 lineto stroke
238 170 moveto
388 170 lineto stroke
238 65 moveto
238 170 lineto stroke
290 196 moveto
315 196 lineto stroke
290 214 moveto
311 214 lineto stroke
290 196 moveto
290 214 lineto stroke
283 249 moveto
308 249 lineto stroke
283 267 moveto
287 267 lineto stroke
283 249 moveto
283 267 lineto stroke
267 303 moveto
288 303 lineto stroke
267 320 moveto
276 320 lineto stroke
267 303 moveto
267 320 lineto stroke
232 338 moveto
265 338 lineto stroke
232 356 moveto
283 356 lineto stroke
232 338 moveto
232 356 lineto stroke
228 311 moveto
267 311 lineto stroke
228 347 moveto
232 347 lineto stroke
228 311 moveto
228 347 lineto stroke
221 285 moveto
272 285 lineto stroke
221 329 moveto
228 329 lineto stroke
221 285 moveto
221 329 lineto stroke
212 258 moveto
283 258 lineto stroke
212 307 moveto
221 307 lineto stroke
212 258 moveto
212 307 lineto stroke
212 232 moveto
281 232 lineto stroke
212 283 moveto
212 283 lineto stroke
212 232 moveto
212 283 lineto stroke
196 205 moveto
290 205 lineto stroke
196 257 moveto
212 257 lineto stroke
196 205 moveto
196 257 lineto stroke
118 118 moveto
238 118 lineto stroke
118 231 moveto
196 231 lineto stroke
118 118 moveto
118 231 lineto stroke
321 373 moveto
358 373 lineto stroke
321 391 moveto
355 391 lineto stroke
321 373 moveto
321 391 lineto stroke
298 444 moveto
304 444 lineto stroke
298 462 moveto
309 462 lineto stroke
298 444 moveto
298 462 lineto stroke
265 426 moveto
358 426 lineto stroke
265 453 moveto
298 453 lineto stroke
265 426 moveto
265 453 lineto stroke
259 409 moveto
327 409 lineto stroke
259 440 moveto
265 440 lineto stroke
259 409 moveto
259 440 lineto stroke
320 515 moveto
327 515 lineto stroke
320 533 moveto
333 533 lineto stroke
320 515 moveto
320 533 lineto stroke
267 497 moveto
297 497 lineto stroke
267 524 moveto
320 524 lineto stroke
267 497 moveto
267 524 lineto stroke
264 479 moveto
308 479 lineto stroke
264 510 moveto
267 510 lineto stroke
264 479 moveto
264 510 lineto stroke
254 424 moveto
259 424 lineto stroke
254 495 moveto
264 495 lineto stroke
254 424 moveto
254 495 lineto stroke
225 382 moveto
321 382 lineto stroke
225 460 moveto
254 460 lineto stroke
225 382 moveto
225 460 lineto stroke
25 174 moveto
118 174 lineto stroke
25 421 moveto
225 421 lineto stroke
25 174 moveto
25 421 lineto stroke
319 568 moveto
334 568 lineto stroke
319 586 moveto
336 586 lineto stroke
319 568 moveto
319 586 lineto stroke
238 550 moveto
342 550 lineto stroke
238 577 moveto
319 577 lineto stroke
238 550 moveto
238 577 lineto stroke
340 656 moveto
346 656 lineto stroke
340 674 moveto
350 674 lineto stroke
340 656 moveto
340 674 lineto stroke
255 639 moveto
310 639 lineto stroke
255 665 moveto
340 665 lineto stroke
255 639 moveto
255 665 lineto stroke
254 621 moveto
288 621 lineto stroke
254 652 moveto
255 652 lineto stroke
254 621 moveto
254 652 lineto stroke
242 603 moveto
332 603 lineto stroke
242 637 moveto
254 637 lineto stroke
242 603 moveto
242 637 lineto stroke
235 564 moveto
238 564 lineto stroke
235 620 moveto
242 620 lineto stroke
235 564 moveto
235 620 lineto stroke
291 692 moveto
316 692 lineto stroke
291 709 moveto
323 709 lineto stroke
291 692 moveto
291 709 lineto stroke
203 592 moveto
235 592 lineto stroke
203 701 moveto
291 701 lineto stroke
203 592 moveto
203 701 lineto stroke
16 298 moveto
25 298 lineto stroke
16 646 moveto
203 646 lineto stroke
16 298 moveto
16 646 lineto stroke
437 723 moveto
475 723 lineto stroke
437 716 moveto
437 729 lineto stroke
475 716 moveto
475 729 lineto stroke
449 726 moveto
(0.1) show
showpage
%%Trailer
