%!PS-Adobe-1.0
%%DocumentFonts: Times-Roman Times-Roman
%%Creator: njplot
%%Pages: 1
%%Title: /home/tina/projects/KAP1/new/trees/bootstrap-1000//msa.nt.CDS.mafftl.RevTrans.phy
%%BeginFeature: *PageSize 
a4
%%EndFeature
%%EndComments
/setpacking where {true setpacking} if
1 setlinecap 1 setlinejoin 1 setlinewidth 0 setgray
/basefont /Times-Roman findfont 12 scalefont def
/titlefont /Times-Roman findfont 12 scalefont def
/setclip {40 40 moveto 560 40 lineto 560 810 lineto 40 810 lineto closepath clip newpath} def
/title {titlefont setfont
40 815 moveto (msa.nt.CDS.mafftl.RevTrans.phy   Wed Aug  9 13:47:19 2017
) show (  Page ) show show ( of 1) show
} def
%%EndProlog
%%Page: ? 1
(1) title setclip
0 0 translate
basefont setfont
50 50 translate
0.7 setgray -10 -10 moveto 510 -10 lineto 510 760 lineto -10 760 lineto closepath stroke 0 setgray 
213 8 moveto
(HOR1-2_CDS) show
179 26 moveto
(HOR1-1_CDS) show
231 44 moveto
(HOR1-4_CDS) show
231 62 moveto
(HOR1-3_CDS) show
177 59 moveto
(877) show
177 46 moveto
(307) show
378 81 moveto
(RAB1-2_CDS) show
296 99 moveto
(RAB1-4_CDS) show
330 117 moveto
(RAB1-1_CDS) show
330 136 moveto
(RAB1-3_CDS) show
294 133 moveto
(882) show
249 119 moveto
(901) show
73 18 moveto
(943) show
73 103 moveto
(989) show
347 154 moveto
(LOX1-2_CDS) show
332 172 moveto
(LOX1-1_CDS) show
348 191 moveto
(LOX1-3_CDS) show
418 209 moveto
(LOX1-4_CDS) show
313 206 moveto
(520) show
293 192 moveto
(450) show
138 227 moveto
(CAN1-4_CDS) show
155 245 moveto
(CAN1-1_CDS) show
155 264 moveto
(CAN1-3_CDS) show
155 282 moveto
(CAN1-2_CDS) show
153 279 moveto
(268) show
136 265 moveto
(717) show
181 300 moveto
(MOU1-3_CDS) show
253 319 moveto
(MOU1-4_CDS) show
215 337 moveto
(MOU1-1_CDS) show
145 334 moveto
(79) show
179 355 moveto
(MOU1-2_CDS) show
287 374 moveto
(RAT1-4_CDS) show
305 392 moveto
(RAT1-3_CDS) show
197 410 moveto
(RAT1-1_CDS) show
216 429 moveto
(RAT1-2_CDS) show
144 377 moveto
(900) show
144 425 moveto
(295) show
144 407 moveto
(54) show
128 308 moveto
(331) show
128 384 moveto
(139) show
79 237 moveto
(950) show
79 352 moveto
(682) show
60 164 moveto
(994) show
60 301 moveto
(456) show
288 447 moveto
(BOV1-3_CDS) show
306 465 moveto
(SHE1-2_CDS) show
356 483 moveto
(SHE1-4_CDS) show
339 502 moveto
(SHE1-3_CDS) show
322 520 moveto
(SHE1-1_CDS) show
304 468 moveto
(354) show
304 517 moveto
(488) show
251 499 moveto
(485) show
237 538 moveto
(BOV1-4_CDS) show
270 557 moveto
(BOV1-1_CDS) show
254 575 moveto
(BOV1-2_CDS) show
235 572 moveto
(708) show
235 464 moveto
(303) show
235 558 moveto
(416) show
399 593 moveto
(HUM1-4_CDS) show
410 612 moveto
(MAC1-1_CDS) show
239 630 moveto
(HUM1-3_CDS) show
256 648 moveto
(HUM1-1_CDS) show
361 667 moveto
(HUM1-5_CDS) show
290 685 moveto
(MAC1-3_CDS) show
273 703 moveto
(MAC1-4_CDS) show
273 721 moveto
(MAC1-2_CDS) show
254 718 moveto
(307) show
236 705 moveto
(411) show
202 633 moveto
(614) show
202 689 moveto
(355) show
186 596 moveto
(729) show
186 667 moveto
(246) show
86 505 moveto
(970) show
86 638 moveto
(848) show
35 226 moveto
(294) show
35 577 moveto
(397) show
14 231 moveto
(565) show
211 48 moveto
229 48 lineto stroke
211 66 moveto
229 66 lineto stroke
211 48 moveto
211 66 lineto stroke
177 30 moveto
177 30 lineto stroke
177 57 moveto
211 57 lineto stroke
177 30 moveto
177 57 lineto stroke
177 12 moveto
211 12 lineto stroke
177 44 moveto
177 44 lineto stroke
177 12 moveto
177 44 lineto stroke
328 121 moveto
328 121 lineto stroke
328 140 moveto
328 140 lineto stroke
328 121 moveto
328 140 lineto stroke
294 103 moveto
294 103 lineto stroke
294 131 moveto
328 131 lineto stroke
294 103 moveto
294 131 lineto stroke
249 85 moveto
376 85 lineto stroke
249 117 moveto
294 117 lineto stroke
249 85 moveto
249 117 lineto stroke
73 28 moveto
177 28 lineto stroke
73 101 moveto
249 101 lineto stroke
73 28 moveto
73 101 lineto stroke
346 195 moveto
346 195 lineto stroke
346 213 moveto
416 213 lineto stroke
346 195 moveto
346 213 lineto stroke
313 176 moveto
330 176 lineto stroke
313 204 moveto
346 204 lineto stroke
313 176 moveto
313 204 lineto stroke
293 158 moveto
345 158 lineto stroke
293 190 moveto
313 190 lineto stroke
293 158 moveto
293 190 lineto stroke
153 268 moveto
153 268 lineto stroke
153 286 moveto
153 286 lineto stroke
153 268 moveto
153 286 lineto stroke
153 249 moveto
153 249 lineto stroke
153 277 moveto
153 277 lineto stroke
153 249 moveto
153 277 lineto stroke
136 231 moveto
136 231 lineto stroke
136 263 moveto
153 263 lineto stroke
136 231 moveto
136 263 lineto stroke
145 323 moveto
251 323 lineto stroke
145 341 moveto
213 341 lineto stroke
145 323 moveto
145 341 lineto stroke
145 304 moveto
179 304 lineto stroke
145 332 moveto
145 332 lineto stroke
145 304 moveto
145 332 lineto stroke
235 378 moveto
285 378 lineto stroke
235 396 moveto
303 396 lineto stroke
235 378 moveto
235 396 lineto stroke
159 414 moveto
195 414 lineto stroke
159 433 moveto
214 433 lineto stroke
159 414 moveto
159 433 lineto stroke
144 387 moveto
235 387 lineto stroke
144 423 moveto
159 423 lineto stroke
144 387 moveto
144 423 lineto stroke
144 359 moveto
177 359 lineto stroke
144 405 moveto
144 405 lineto stroke
144 359 moveto
144 405 lineto stroke
128 318 moveto
145 318 lineto stroke
128 382 moveto
144 382 lineto stroke
128 318 moveto
128 382 lineto stroke
79 247 moveto
136 247 lineto stroke
79 350 moveto
128 350 lineto stroke
79 247 moveto
79 350 lineto stroke
60 174 moveto
293 174 lineto stroke
60 299 moveto
79 299 lineto stroke
60 174 moveto
60 299 lineto stroke
304 469 moveto
304 469 lineto stroke
304 487 moveto
354 487 lineto stroke
304 469 moveto
304 487 lineto stroke
320 506 moveto
337 506 lineto stroke
320 524 moveto
320 524 lineto stroke
320 506 moveto
320 524 lineto stroke
304 478 moveto
304 478 lineto stroke
304 515 moveto
320 515 lineto stroke
304 478 moveto
304 515 lineto stroke
251 451 moveto
286 451 lineto stroke
251 497 moveto
304 497 lineto stroke
251 451 moveto
251 497 lineto stroke
252 561 moveto
268 561 lineto stroke
252 579 moveto
252 579 lineto stroke
252 561 moveto
252 579 lineto stroke
235 542 moveto
235 542 lineto stroke
235 570 moveto
252 570 lineto stroke
235 542 moveto
235 570 lineto stroke
235 474 moveto
251 474 lineto stroke
235 556 moveto
235 556 lineto stroke
235 474 moveto
235 556 lineto stroke
298 597 moveto
397 597 lineto stroke
298 616 moveto
408 616 lineto stroke
298 597 moveto
298 616 lineto stroke
220 634 moveto
237 634 lineto stroke
220 652 moveto
254 652 lineto stroke
220 634 moveto
220 652 lineto stroke
254 707 moveto
271 707 lineto stroke
254 725 moveto
271 725 lineto stroke
254 707 moveto
254 725 lineto stroke
254 689 moveto
288 689 lineto stroke
254 716 moveto
254 716 lineto stroke
254 689 moveto
254 716 lineto stroke
236 671 moveto
359 671 lineto stroke
236 703 moveto
254 703 lineto stroke
236 671 moveto
236 703 lineto stroke
202 643 moveto
220 643 lineto stroke
202 687 moveto
236 687 lineto stroke
202 643 moveto
202 687 lineto stroke
186 606 moveto
298 606 lineto stroke
186 665 moveto
202 665 lineto stroke
186 606 moveto
186 665 lineto stroke
86 515 moveto
235 515 lineto stroke
86 636 moveto
186 636 lineto stroke
86 515 moveto
86 636 lineto stroke
35 236 moveto
60 236 lineto stroke
35 575 moveto
86 575 lineto stroke
35 236 moveto
35 575 lineto stroke
12 64 moveto
73 64 lineto stroke
12 406 moveto
35 406 lineto stroke
12 64 moveto
12 406 lineto stroke
411 733 moveto
475 733 lineto stroke
411 729 moveto
411 737 lineto stroke
475 729 moveto
475 737 lineto stroke
428 735 moveto
(0.02) show
showpage
%%Trailer
