%!PS-Adobe-1.0
%%DocumentFonts: Times-Roman Times-Roman
%%Creator: njplot
%%Pages: 1
%%Title: /home/tina/projects/KAP1/trees/phyml-bst1000/nonsynSyn/syn_phylip_phyml_tree.txt.ph
%%BeginFeature: *PageSize 
a4
%%EndFeature
%%EndComments
/setpacking where {true setpacking} if
1 setlinecap 1 setlinejoin 1 setlinewidth 0 setgray
/basefont /Times-Roman findfont 12 scalefont def
/titlefont /Times-Roman findfont 12 scalefont def
/setclip {40 40 moveto 560 40 lineto 560 810 lineto 40 810 lineto closepath clip newpath} def
/title {titlefont setfont
40 815 moveto (syn_phylip_phyml_tree.txt.ph   Thu Jul 28 13:02:01 2016
) show (  Page ) show show ( of 1) show
} def
%%EndProlog
%%Page: ? 1
(1) title setclip
0 0 translate
basefont setfont
50 50 translate
0.7 setgray -10 -10 moveto 510 -10 lineto 510 760 lineto -10 760 lineto closepath stroke 0 setgray 
179 13 moveto
(MOU1-1_CDS) show
220 31 moveto
(RAT1-2_CDS) show
238 48 moveto
(MOU1-2_CDS) show
270 66 moveto
(MOU1-3_CDS) show
300 84 moveto
(MOU1-4_CDS) show
207 101 moveto
(RAT1-1_CDS) show
173 102 moveto
(145) show
173 89 moveto
(21) show
269 119 moveto
(RAT1-3_CDS) show
270 137 moveto
(RAT1-4_CDS) show
173 54 moveto
(23) show
173 138 moveto
(723) show
142 12 moveto
(332) show
142 106 moveto
(267) show
233 154 moveto
(RAB1-3_CDS) show
233 172 moveto
(RAB1-1_CDS) show
232 190 moveto
(RAB1-4_CDS) show
359 207 moveto
(RAB1-2_CDS) show
213 153 moveto
(733) show
213 209 moveto
(533) show
217 225 moveto
(HOR1-1_CDS) show
279 243 moveto
(HOR1-2_CDS) show
279 261 moveto
(HOR1-4_CDS) show
279 278 moveto
(HOR1-3_CDS) show
214 279 moveto
(764) show
214 266 moveto
(136) show
244 296 moveto
(SHE1-4_CDS) show
183 314 moveto
(SHE1-2_CDS) show
276 331 moveto
(BOV1-3_CDS) show
276 349 moveto
(BOV1-4_CDS) show
306 367 moveto
(BOV1-1_CDS) show
306 384 moveto
(BOV1-2_CDS) show
273 386 moveto
(731) show
242 372 moveto
(533) show
213 402 moveto
(SHE1-3_CDS) show
213 420 moveto
(SHE1-1_CDS) show
180 337 moveto
(606) show
180 421 moveto
(393) show
180 389 moveto
(31) show
180 356 moveto
(64) show
117 231 moveto
(608) show
117 331 moveto
(292) show
85 171 moveto
(791) show
85 291 moveto
(380) show
86 437 moveto
(CAN1-4_CDS) show
117 455 moveto
(CAN1-1_CDS) show
117 473 moveto
(CAN1-2_CDS) show
117 491 moveto
(CAN1-3_CDS) show
113 492 moveto
(221) show
83 478 moveto
(397) show
64 221 moveto
(347) show
64 463 moveto
(476) show
44 49 moveto
(688) show
44 352 moveto
(355) show
161 508 moveto
(LOX1-2_CDS) show
222 526 moveto
(LOX1-4_CDS) show
222 544 moveto
(LOX1-1_CDS) show
222 561 moveto
(LOX1-3_CDS) show
188 562 moveto
(657) show
158 549 moveto
(599) show
218 579 moveto
(HUM1-4_CDS) show
415 597 moveto
(MAC1-1_CDS) show
154 614 moveto
(MAC1-3_CDS) show
185 632 moveto
(MAC1-2_CDS) show
317 650 moveto
(HUM1-5_CDS) show
185 667 moveto
(MAC1-4_CDS) show
277 685 moveto
(HUM1-1_CDS) show
216 703 moveto
(HUM1-3_CDS) show
151 704 moveto
(682) show
151 691 moveto
(62) show
151 675 moveto
(44) show
121 659 moveto
(281) show
121 578 moveto
(710) show
121 642 moveto
(81) show
34 514 moveto
(955) show
34 620 moveto
(522) show
19 383 moveto
(448) show
159 20 moveto
175 20 lineto stroke
159 37 moveto
217 37 lineto stroke
159 20 moveto
159 37 lineto stroke
203 90 moveto
297 90 lineto stroke
203 108 moveto
203 108 lineto stroke
203 90 moveto
203 108 lineto stroke
173 73 moveto
267 73 lineto stroke
173 99 moveto
203 99 lineto stroke
173 73 moveto
173 99 lineto stroke
173 55 moveto
234 55 lineto stroke
173 86 moveto
173 86 lineto stroke
173 55 moveto
173 86 lineto stroke
235 126 moveto
266 126 lineto stroke
235 143 moveto
266 143 lineto stroke
235 126 moveto
235 143 lineto stroke
173 70 moveto
173 70 lineto stroke
173 135 moveto
235 135 lineto stroke
173 70 moveto
173 135 lineto stroke
142 28 moveto
159 28 lineto stroke
142 102 moveto
173 102 lineto stroke
142 28 moveto
142 102 lineto stroke
229 161 moveto
229 161 lineto stroke
229 179 moveto
229 179 lineto stroke
229 161 moveto
229 179 lineto stroke
229 196 moveto
229 196 lineto stroke
229 214 moveto
356 214 lineto stroke
229 196 moveto
229 214 lineto stroke
213 170 moveto
229 170 lineto stroke
213 205 moveto
229 205 lineto stroke
213 170 moveto
213 205 lineto stroke
275 267 moveto
275 267 lineto stroke
275 285 moveto
275 285 lineto stroke
275 267 moveto
275 285 lineto stroke
214 249 moveto
275 249 lineto stroke
214 276 moveto
275 276 lineto stroke
214 249 moveto
214 276 lineto stroke
214 232 moveto
214 232 lineto stroke
214 263 moveto
214 263 lineto stroke
214 232 moveto
214 263 lineto stroke
303 373 moveto
303 373 lineto stroke
303 391 moveto
303 391 lineto stroke
303 373 moveto
303 391 lineto stroke
273 356 moveto
273 356 lineto stroke
273 382 moveto
303 382 lineto stroke
273 356 moveto
273 382 lineto stroke
242 338 moveto
273 338 lineto stroke
242 369 moveto
273 369 lineto stroke
242 338 moveto
242 369 lineto stroke
210 409 moveto
210 409 lineto stroke
210 426 moveto
210 426 lineto stroke
210 409 moveto
210 426 lineto stroke
180 353 moveto
242 353 lineto stroke
180 418 moveto
210 418 lineto stroke
180 353 moveto
180 418 lineto stroke
180 320 moveto
180 320 lineto stroke
180 386 moveto
180 386 lineto stroke
180 320 moveto
180 386 lineto stroke
180 303 moveto
241 303 lineto stroke
180 353 moveto
180 353 lineto stroke
180 303 moveto
180 353 lineto stroke
117 247 moveto
214 247 lineto stroke
117 328 moveto
180 328 lineto stroke
117 247 moveto
117 328 lineto stroke
85 188 moveto
213 188 lineto stroke
85 288 moveto
117 288 lineto stroke
85 188 moveto
85 288 lineto stroke
113 479 moveto
113 479 lineto stroke
113 497 moveto
113 497 lineto stroke
113 479 moveto
113 497 lineto stroke
113 462 moveto
113 462 lineto stroke
113 488 moveto
113 488 lineto stroke
113 462 moveto
113 488 lineto stroke
83 444 moveto
83 444 lineto stroke
83 475 moveto
113 475 lineto stroke
83 444 moveto
83 475 lineto stroke
64 238 moveto
85 238 lineto stroke
64 460 moveto
83 460 lineto stroke
64 238 moveto
64 460 lineto stroke
44 65 moveto
142 65 lineto stroke
44 349 moveto
64 349 lineto stroke
44 65 moveto
44 349 lineto stroke
219 550 moveto
219 550 lineto stroke
219 568 moveto
219 568 lineto stroke
219 550 moveto
219 568 lineto stroke
188 533 moveto
219 533 lineto stroke
188 559 moveto
219 559 lineto stroke
188 533 moveto
188 559 lineto stroke
158 515 moveto
158 515 lineto stroke
158 546 moveto
188 546 lineto stroke
158 515 moveto
158 546 lineto stroke
215 586 moveto
215 586 lineto stroke
215 603 moveto
412 603 lineto stroke
215 586 moveto
215 603 lineto stroke
213 692 moveto
274 692 lineto stroke
213 709 moveto
213 709 lineto stroke
213 692 moveto
213 709 lineto stroke
151 674 moveto
181 674 lineto stroke
151 701 moveto
213 701 lineto stroke
151 674 moveto
151 701 lineto stroke
151 656 moveto
313 656 lineto stroke
151 687 moveto
151 687 lineto stroke
151 656 moveto
151 687 lineto stroke
151 639 moveto
181 639 lineto stroke
151 672 moveto
151 672 lineto stroke
151 639 moveto
151 672 lineto stroke
121 621 moveto
151 621 lineto stroke
121 655 moveto
151 655 lineto stroke
121 621 moveto
121 655 lineto stroke
121 594 moveto
215 594 lineto stroke
121 638 moveto
121 638 lineto stroke
121 594 moveto
121 638 lineto stroke
34 530 moveto
158 530 lineto stroke
34 616 moveto
121 616 lineto stroke
34 530 moveto
34 616 lineto stroke
16 207 moveto
44 207 lineto stroke
16 573 moveto
34 573 lineto stroke
16 207 moveto
16 573 lineto stroke
437 723 moveto
475 723 lineto stroke
437 716 moveto
437 729 lineto stroke
475 716 moveto
475 729 lineto stroke
446 726 moveto
(0.02) show
showpage
%%Trailer
